{
    "title": "Majority Voting protocol (broken)",
    "states": [
        "Y",
        "N",
        "y",
        "n"
    ],
    "transitions": [
        {
            "name": "Y, N -> y, n",
            "pre": [
                "Y",
                "N"
            ],
            "post": [
                "y",
                "n"
            ]
        },
        {
            "name": "Y, n -> Y, y",
            "pre": [
                "Y",
                "n"
            ],
            "post": [
                "Y",
                "y"
            ]
        },
        {
            "name": "N, y -> N, n",
            "pre": [
                "N",
                "y"
            ],
            "post": [
                "N",
                "n"
            ]
        }
    ],
    "initialStates": [
        "Y",
        "N"
    ],
    "trueStates": [
        "Y",
        "y"
    ],
    "falseStates": [
        "N",
        "n"
    ],
    "predicate": "C[Y] >= C[N]",
    "description": "This protocol takes a majority vote. More precisely,\n                          it (attempts to) compute whether there are initially\n                          more agents in state Y than N. The protocol is incorrect\n                          whenever there is a tie.",
    "statesStyle": {
        "Y": {
            "size": 1.0
        },
        "N": {
            "size": 1.0
        },
        "y": {
            "size": 0.5
        },
        "n": {
            "size": 0.5
        }
    }
}